ch10
…
\[
\sigma_{fg} = \sqrt{\frac{\sigma_f^2 \sigma_g^2}{\sigma_f^2 + \sigma_g^2}}
\textrm{ and }
\mu_{fg} = \frac{\mu_f \sigma_g^2 + \mu_g \sigma_f^2}{\sigma_f^2 + \sigma_g^2}
\]

Ch.10 Linear regression with multiple predictors

Load data

kid_iq <- here::here("Examples", "KidIQ", "data", "kidiq.csv")
kid_iq <- read_csv(kid_iq)
kid_iq

# A tibble: 434 × 5
   kid_score mom_hs mom_iq mom_work mom_age
       <dbl>  <dbl>  <dbl>    <dbl>   <dbl>
 1        65      1  121.         4      27
 2        98      1   89.4        4      25
 3        85      1  115.         4      27
 4        83      1   99.4        3      25
 5       115      1   92.7        4      27
 6        98      0  108.         1      18
 7        69      1  139.         4      20
 8       106      1  125.         3      23
 9       102      1   81.6        1      24
10        95      1   95.1        1      19
# … with 424 more rows
…
