ch13-14
…
Prepare prediction data using posterior_epred

pe <- M1 |> 
  tidybayes::epred_draws(
    newdata = tibble(
      income = seq(-7, 13, .5)
    )
  )

print(pe)

# A tibble: 164,000 × 6
# Groups:   income, .row [41]
   income  .row .chain .iteration .draw .epred
    <dbl> <int>  <int>      <int> <int>  <dbl>
 1     -7     1     NA         NA     1 0.0362
 2     -7     1     NA         NA     2 0.0259
 3     -7     1     NA         NA     3 0.0198
 4     -7     1     NA         NA     4 0.0283
 5     -7     1     NA         NA     5 0.0146
 6     -7     1     NA         NA     6 0.0358
 7     -7     1     NA         NA     7 0.0274
 8     -7     1     NA         NA     8 0.0185
 9     -7     1     NA         NA     9 0.0329
10     -7     1     NA         NA    10 0.0160
# … with 163,990 more rows
…
